<svg xmlns="http://www.w3.org/2000/svg" width="103" height="83" viewBox="0 0 103 83">
  <g id="Group_3517" data-name="Group 3517" transform="translate(-339 -151)">
    <rect id="Rectangle_7" data-name="Rectangle 7" width="103" height="83" rx="3" transform="translate(339 151)" fill="#36f"/>
    <path id="ic_account_balance_wallet_24px" d="M48.215,40.679v2.512a5.039,5.039,0,0,1-5.024,5.024H8.024A5.022,5.022,0,0,1,3,43.191V8.024A5.022,5.022,0,0,1,8.024,3H43.191a5.039,5.039,0,0,1,5.024,5.024v2.512H25.607a5.022,5.022,0,0,0-5.024,5.024v20.1a5.022,5.022,0,0,0,5.024,5.024ZM25.607,35.655H50.727V15.56H25.607Zm10.048-6.28a3.768,3.768,0,1,1,3.768-3.768A3.763,3.763,0,0,1,35.655,29.375Z" transform="translate(364 166)" fill="#fff"/>
  </g>
</svg>
