<svg xmlns="http://www.w3.org/2000/svg" width="18.525" height="30" viewBox="0 0 18.525 30">
  <path id="ic_chevron_left_24px" d="M26.525,9.525,23,6,8,21,23,36l3.525-3.525L15.075,21Z" transform="translate(-8 -6)" fill="#4c62a2"/>
</svg>
