<svg xmlns="http://www.w3.org/2000/svg" width="22" height="24" viewBox="0 0 22 24">
  <path id="ic_notifications_none_24px" d="M15,26.5a2.626,2.626,0,0,0,2.75-2.462h-5.5A2.626,2.626,0,0,0,15,26.5Zm8.25-7.385V12.962a7.615,7.615,0,0,0-6.187-7.778V4.346A1.961,1.961,0,0,0,15,2.5a1.961,1.961,0,0,0-2.062,1.846v.837A7.619,7.619,0,0,0,6.75,12.962v6.154L4,21.577v1.231H26V21.577ZM20.5,20.346H9.5V12.962A5.291,5.291,0,0,1,15,7.423a5.291,5.291,0,0,1,5.5,5.538Z" transform="translate(-4 -2.5)"/>
</svg>
