<svg xmlns="http://www.w3.org/2000/svg" width="18.39" height="18.39" viewBox="0 0 18.39 18.39">
  <path id="ic_home_24px" d="M9.356,21.39V14.9h3.678V21.39h4.6V12.736H20.39L11.2,3,2,12.736H4.759V21.39Z" transform="translate(-2 -3)" fill="#707070"/>
</svg>
