<svg xmlns="http://www.w3.org/2000/svg" width="16" height="16" viewBox="0 0 16 16">
  <g id="Group_3517" data-name="Group 3517" transform="translate(-407 -2636)">
    <rect id="Rectangle_61" data-name="Rectangle 61" width="16" height="16" rx="5" transform="translate(407 2636)" fill="#6c5dd3"/>
    <path id="ic_work_24px" d="M8.135,3.363H6.772V2.682A.679.679,0,0,0,6.09,2H4.727a.679.679,0,0,0-.682.682v.682H2.682A.676.676,0,0,0,2,4.045L2,7.794a.679.679,0,0,0,.682.682H8.135a.679.679,0,0,0,.682-.682V4.045A.679.679,0,0,0,8.135,3.363Zm-2.045,0H4.727V2.682H6.09Z" transform="translate(410 2639)" fill="#fff"/>
  </g>
</svg>
