<svg xmlns="http://www.w3.org/2000/svg" width="18.39" height="18.39" viewBox="0 0 18.39 18.39">
  <path id="ic_view_quilt_24px" d="M10.491,23.39H15.9V14.9H10.491ZM4,23.39H9.409V5H4Zm12.981,0H22.39V14.9H16.981ZM10.491,5v8.488h11.9V5Z" transform="translate(-4 -5)" fill="#273357"/>
</svg>
