<svg xmlns="http://www.w3.org/2000/svg" width="76" height="2" viewBox="0 0 76 2">
  <g id="Group_18" data-name="Group 18" transform="translate(-439.5 -632.5)">
    <line id="Line_10" data-name="Line 10" x2="74" transform="translate(440.5 633.5)" fill="none" stroke="#e1e1e1" stroke-linecap="round" stroke-width="2"/>
    <line id="Line_11" data-name="Line 11" x2="35" transform="translate(440.5 633.5)" fill="none" stroke="#7061d4" stroke-linecap="round" stroke-width="2"/>
  </g>
</svg>
